station,indx_strt,indx_end,
A33060,4244,12383,
A33061,3902,11456,
A33062,3229,8390,
A33063,3837,11888,
A33064,NA,NA,
A33065,3998,10151,
A33066,3578,11108,
A33067,4665,12520,
A33068,3634,8434,
A33069,4044,10890,
A33070,3401,8790,
A33071,2389,9773,
A33072,7190,14390,
A33073,5018,9818,
A33074,4656,12801,
A33075,4306,11506,
A33076,4144,11624,
A33077,2958,10369,
A33078,2468,10019,
A33079,2672,9946,
A33080,6134,13334,
A33081,5328,13561,
A33082,5773,13670,
A33083,5619,10419,
A33084,6616,13816,
A33085,8109,15965,
A33086,6707,13907,
A33087,2780,10410,
A33088,2773,10211,
A33089,2996,10474,
A33090,3126,10565,
A33091,3861,11391,
A33092,3376,10865,
A33093,4599,12785,
A33094,5643,12843,
A33095,7247,14447,
A33096,9475,16675,
A33097,5748,13760,
A33098,4210,11710,
A33099,4364,12576,
A33100,3820,11707,
A33101,7555,14755,
A33102,3933,11484,
A33103,4195,11620,
A33104,3036,10581,
A33105,9570,16960,
A33106,3961,11389,
A33107,3591,8391,
A33108,3171,10603,
A33109,3393,10782,
A33110,NA,NA,
A33111,3375,10948,
A33112,3147,10687,
A33113,3570,8573,
A33114,4815,12264,
A33115,3286,8494,
A33116,5624,11662,
A33117,5189,9989,
A33118,3812,8612,
A33119,6790,14262,
A33120,3770,11146,
A33121,3459,10992,
A33122,6780,14377,
A33123,9140,16340,
A33124,9463,16663,
A33125,6932,14132,
A33126,5747,10547,
A33127,4809,9609,
A33128,8292,15492,
A33129,7577,14777,
A33130,4419,9219,
A33131,3803,11294,
A33132,3633,8433,
A33133,2488,9921,
A33134,3571,11020,
A33135,3111,10710,
A33136,3904,11389,
A33137,2941,10382,
A33138,3303,10861,
A33139,3104,7904,
A33140,3063,10458,
A33141,8449,15649,
A33142,6226,14297,
A33143,4128,11485,
A33144,3499,10984,
A33145,3353,10717,
A33146,3501,10814,
A33147,3332,10745,
A33148,2750,10159,
A33149,2509,6862,
A33150,3310,6857,
A33151,4492,11876,
A33152,2447,9820,
A33153,2615,10118,
A33154,3043,10521,
A33155,3816,11364,
A33156,3550,11032,
A33157,3686,11064,
A33158,3523,10977,
A33159,3832,11351,
A33160,3676,11525,
A33161,3402,10844,
A33162,5666,13950,
A33163,7364,14564,
A33164,9181,16381,
A33165,4994,12792,
A33166,5416,10216,
A33167,7862,15062,
A33168,7515,14715,
A33169,6048,10848,
A33170,5740,10540,
A33171,4642,12166,
A33172,4495,9324,
A33173,3822,11496,
A33174,3497,11023,
A33175,4706,10015,
A33176,3918,11455,
A33177,4585,9385,
A33178,4239,12227,
A33179,3741,10746,
A33180,4071,7280,
A33784,5397,12597,
A33785,4795,12081,
A33786,4772,12197,
A33787,5944,13309,
A33788,5830,13100,
A33789,9694,17030,
A33790,13410,21367,
A33791,7105,14291,
A33792,7152,14352,
A33793,5031,9831,
A33794,8687,15852,
A33795,4316,11690,
A33796,4701,12155,
A33797,4599,11799,
A33798,3624,8615,
A33799,4031,8966,
A33800,2726,10202,
A33801,9753,16953,
A33802,6844,14293,
A33803,8457,13257,
A33804,6567,13835,
A33805,7470,14854,
A33806,5664,12957,
A33807,6849,11649,
A33808,3822,8622,
A33809,3538,10980,
A33810,3218,10602,
A33811,9134,17079,
A33812,4614,10415,
A33813,5245,9573,
A33814,NA,NA,"looks like aborted trawl and net didn’t reach bottom, could get some ctd info here but no trawl profile"
A33815,6558,13758,
A33816,3430,10269,
A33817,4838,9536,
A33818,NA,NA,
A33819,5033,5589,
A33820,6045,7208,
A33821,3248,10581,
A33822,2965,10433,
A33823,NA,NA,looks like failed trawl (and the net stayed under water hanging for 500+ minutes) could get some ctd data here but not a trawl profile
A33824,15455,23450,
A33825,4471,9271,
A33826,4099,11489,
A33827,4631,11899,
A33828,2417,7217,
A33829,4406,10598,
A33830,NA,NA,
A33832,5751,12951,
A33833,6509,11309,
A33834,6266,13466,
A33835,5356,12762,
A33836,8518,15718,
A33837,7880,15080,
A33838,7364,14564,
A33839,7069,13183,
A33840,6675,11475,
A33841,5006,9806,
A33842,8002,15369,
A33843,6275,13475,
A33844,7226,14426,
A33845,10359,17559,
A33846,7182,14382,
A33847,4805,9748,
A33848,5376,10394,
A33849,4981,9913,
A33850,5068,11264,
A33851,4917,10834,
A33852,5135,12484,
A33853,5999,10799,
A33854,5947,13147,
A33855,6627,11427,
A33856,2408,9798,
A33857,6555,13921,
A33858,3032,10387,
A33859,4585,11999,
A33860,4270,10168,
A33861,4041,11502,
A33862,3221,10754,
A33863,3290,10625,
A33864,5721,13035,
A33865,4878,9446,
A33866,3922,8894,
A33867,3709,8711,
A33868,3675,10068,
A33869,3974,11320,
A33870,3370,8278,
A33871,2931,10286,
A33872,3312,10687,
A33873,4875,12150,
A33874,5097,13399,
A33875,5622,10508,
A33876,6347,13666,
A33877,5345,10145,
A33878,3549,9672,
A33879,3334,11500,
A33880,3261,10147,
A33881,3041,9129,
A33882,3105,10445,
A33883,4319,10428,
A33884,2808,10221,
A33885,17642,24981,
A33886,2892,10269,
A33887,3625,9831,
A33888,2937,10248,
A33889,2074,9488,
A33890,2450,9825,
A33891,2346,9849,
A33892,2351,9661,
A33893,2806,10217,
A33894,3588,10967,
A33895,2324,7267,
A33896,2816,10164,
A33897,4905,12329,
A33898,3368,10692,
A33899,2659,7459,
A33900,2184,6984,
A33901,3890,11205,
A33902,2462,8464,
A33903,3597,10958,
A33904,4017,12385,
A33905,2951,10371,
A33906,3358,10789,
A34442,5192,9992,
A34443,4898,9698,
A34445,8924,13724,
A34446,11288,18706,
A34447,7344,14544,
A34448,7538,14738,
A34449,6825,11625,
A34450,7476,13808,
A34451,6826,11626,
A34452,5444,12644,
A34454,3535,8597,
A34455,3176,10622,
A34457,NA,NA,
A34458,4818,10266,
A34459,3447,10701,
A34460,5564,13710,
A34461,4542,12925,
A34462,4414,12690,
A34463_Falsedip_2020_AFR300_DC_filter_align_CTM_derive_ascii.asc,NA,NA,
A34465,3909,12217,
A34466,4930,12808,
A34467,7062,15308,
A34468,10283,17483,
A34469,6914,13157,
A34470,7080,14280,fixed start to 29.5 and end to 39.5min
A34471,4686,11886,
A34472,5478,12678,
A34473,5261,12461,
A34474,8111,15311,
A34475,6023,13223,
A34476,4999,12549,
A34477,4228,12446,
A34478,4135,11547,
A34479,8925,15179,
A34480,4592,11839,
A34481,4695,12446,
A34482,4090,10062,
A34483,5617,12966,
A34484,3342,11414,
A34485,3899,11975,
A34486,3889,11950,
A34487,4005,11637,
A34488,4427,12610,
A34489,5406,13144,
A34490,3894,11888,
A34491,3681,8481,
A34492,6003,10803,
A34493,2735,10230,
A34494,4534,11955,
A34495,7200,12873,
A34496,4168,12201,
A34497,3690,11455,
A34498,4025,12099,
A34499,4623,12570,
A34500,3042,10934,
A34501,3781,11224,
A34502,3777,11133,
A34503,2549,10909,
A34504,4558,9517,
A34505,2020,9487,
A34506,3307,11225,
A34507,3218,10587,
A34508,4027,11894,
A34509,4092,12235,
A34510,4140,12329,
A34511,5286,13245,
A34512,5344,10144,
A34514,3965,12275,
A34515,4691,12735,
A34516,3922,11640,
A34517,5251,12620,
A34518,5462,13342,
A34519,4564,11764,
A34520,4163,8963,
A34521,2886,10232,
A34522,3630,11379,
A34523,4694,12007,
A34524,4672,12905,
A34525,4265,12203,
A34526,5158,13086,
A34527,4378,12615,
A34528,4476,12475,
A34529,8316,15516,
A34530,8591,15791,
A34531,7214,14414,
A34532,6811,14011,
A34533,7102,14302,
A34534,6026,13226,
A34535,4827,11011,
A34536,6273,13473,
A34537,6337,13537,
A34538,5188,10632,
A34539,6113,12294,
A34540,4728,11928,
A34541,7141,14341,
A34542,6118,13318,
A34543,6381,14012,
A34544,3935,11275,
A34545,5382,13379,
A34546,4656,9456,
A34547,5546,10346,
A34548,9671,14471,
A34549,10543,17861,
A34550,5794,12994,
A34551,4402,11692,
A34552,4284,11720,
A34553,4342,11668,
A34554,3790,11616,
A34555,5424,11565,
A34556,3887,9063,
A34557,3893,11177,
A34558,6625,13825,
A34559,5089,12296,
A34560,4290,11911,
A34561,4168,11994,
data_raw/dffe_ctd/jordan_extracted/2019_AFR297_SC_19plus//SPAR TEST_2019_04_03_0014_2019_SC_DC_Filter_AlignTO_CTM_Derive_ASCII Out.asc,NA,NA,
A33907,3606,10936,
A33908,3839,11184,
A33909,3803,8603,
A33910,4973,9974,
A33911,7123,11923,
A33912,3388,10712,
A33913,4130,9125,
A33914,3820,8812,
A33917,6158,13759,
A33918,7131,15028,
A33919,8493,13293,
A33920,5314,10114,
A33922,8400,15600,fixed start to 35 and end to 65min
A33923,3645,10951,
A33924,4265,9065,
A33925,5576,11988,
A33926,5686,10486,
A33927,3315,8115,
A33928,2981,7935,
A33929,3625,9739,
A33930,13208,18391,
A33931,3020,9166,
A33932,3223,9607,
A33933,3362,8162,
A33934,2861,9032,
A33935,3491,9630,
A33936,3228,10593,
A33937,2482,7282,
A33938,2663,9972,
A33939,2344,8875,
A33940,2545,8648,
A33941,2154,6728,
A33942,3002,7957,
A33943,2358,7158,
A33944,2218,7018,
A33945,3715,8515,
A33946,2400,9600,fixed start to 10 and end to 40min
A33947,2696,7496,
A33948,4975,11137,
A33949,3716,8516,
A33950,3971,10207,
A33951,3789,11104,
A33952,2985,9262,
A33953,2814,9143,
A33954,9669,14469,
A33955,10847,15784,
A33956,2761,10091,
A33957,3060,10364,
A33958,7660,12460,
A33959,7069,14283,
A33960,8443,15451,
A33961,4326,10588,
A33962,4028,10544,
A33963,3042,7842,
A33964,2954,10267,
A33965,3166,10261,
A33966,3408,8208,
A33967,2859,10328,
A33968,3254,8214,
A33969,4739,10968,
A33970,2913,9912,
A33971,4048,11419,
A33972,3609,11027,
A33973,6317,11117,
A33974,4316,11646,
A33975,3369,10607,
A33976,3739,8600,
A33977,3181,10542,
A33978,2962,9079,
A33979,2465,8602,
A33980,6960,11760,
A33981,3850,11289,
A33982,8583,18480,fixed end to 77min
A33984,4023,8823,
A33985,6387,11187,
A33986,8123,12923,
A33987,3519,11121,
A33988,3840,11167,
A33989,3914,11192,
A33990,2886,10202,
A33991,NA,NA,
A33992,NA,NA,
A33993,NA,NA,
A33994,NA,NA,
A33995,NA,NA,
A33996,NA,NA,
A33997,NA,NA,
A33998,NA,NA,
A33999,NA,NA,
A34000,NA,NA,
A34001,NA,NA,
A34002,NA,NA,
A34003,NA,NA,
A34004,NA,NA,
A34005,NA,NA,
A34006,NA,NA,
A34008,NA,NA,
A34009,3857,11132,
A34010,4510,11828,
A34011,3515,10908,
A34012,2918,10295,
A34013,2828,10134,
A34014,2905,10262,
A34015,3191,9382,
A34016,2577,7540,
A34017,2368,7168,
A34018,3120,6960,fixed start to 13 and end to 29min
A34019,2751,8859,
A34020,2070,8813,
A34021,1754,9139,
A34022,2730,10068,
A34023,1778,9224,
A34024,2511,7311,
A34025,2588,7388,
A34026,10677,15477,
A34027,2414,7214,
D00178,7736,16019,
D00179,5589,10389,
D00180,6245,11045,
D00181,12385,19585,
D00182,5150,9950,
D00183,6890,14225,
D00184,7607,14900,
D00185,6627,13827,
D00186,6235,13753,
D00187,8714,16151,
D00188,NA,NA,
D00189,NA,NA,
D00190,NA,NA,
D00191,5556,10356,
D00192,4234,12307,
D00193,3759,11507,
D00194,3224,10413,
D00195,2489,10477,
D00196,3282,10615,
D00197,3483,10768,
D00198,4201,9001,
D00199,4477,11780,
D00200,3517,10819,
D00201,4773,12842,
D00202,3622,11030,
D00203,3541,11130,
D00204,4081,11431,
D00205,3095,10359,
D00206,10583,15383,
D00207,4333,11767,
D00208,3724,10942,
D00209,4357,9991,
D00210,3741,11003,
D00211,6429,11229,
D00212,3728,11011,
D00213,3688,10888,
D00214,3804,10421,
D00215,4872,12386,
D00216,5792,13069,
D00217,7109,12149,
D00218,7336,14931,
D00219,8141,16445,
D00220,6162,13595,
D00221,6637,13837,
D00222,7534,15023,
D00223,2658,7458,
D00224,2619,9774,
D00225,2644,9869,
D00226,4528,9328,
D00227,3439,10633,
D00228,2986,10575,
D00229,4121,11637,
D00230,3401,10667,
D00231,3735,10105,
D00232,4753,12706,
D00233,3668,9808,
D00234,4157,10900,
D00235,3772,9965,
D00236,3949,11783,
D00237,5204,12404,
D00238,4432,11948,
D00239,5759,12959,
D00240,8390,15590,
D00241,6373,13573,
D00242,6600,10320,fixed start to 27.5 and end to 43min
D00243,7419,14619,
D00244,6753,13953,
D00245,5169,12816,
D00246,5074,12360,
D00247,5450,12900,
D00248,4951,12522,
D00249,4942,12620,
D00250,4950,12518,
SBE19plus_01907105_2014_03_13_13_0008AND002_2014_WC_DC_Filter_AlignTO_CTM_Derive_ASCII.asc,NA,NA,changed to NAs
